\relax 
\providecommand\hyper@newdestlabel[2]{}
\providecommand\HyperFirstAtBeginDocument{\AtBeginDocument}
\HyperFirstAtBeginDocument{\ifx\hyper@anchor\@undefined
\global\let\oldcontentsline\contentsline
\gdef\contentsline#1#2#3#4{\oldcontentsline{#1}{#2}{#3}}
\global\let\oldnewlabel\newlabel
\gdef\newlabel#1#2{\newlabelxx{#1}#2}
\gdef\newlabelxx#1#2#3#4#5#6{\oldnewlabel{#1}{{#2}{#3}}}
\AtEndDocument{\ifx\hyper@anchor\@undefined
\let\contentsline\oldcontentsline
\let\newlabel\oldnewlabel
\fi}
\fi}
\global\let\hyper@last\relax 
\gdef\HyperFirstAtBeginDocument#1{#1}
\providecommand\HyField@AuxAddToFields[1]{}
\providecommand\HyField@AuxAddToCoFields[2]{}
\citation{Corona2013}
\citation{Nelson2008}
\citation{Goodfellow2015}
\citation{Tygar2011}
\citation{Szegedy2013}
\select@language{english}
\@writefile{toc}{\select@language{english}}
\@writefile{lof}{\select@language{english}}
\@writefile{lot}{\select@language{english}}
\@writefile{toc}{\contentsline {section}{\numberline {I}Project Description}{1}{section.1}}
\@writefile{toc}{\contentsline {subsection}{\numberline {i}Background}{1}{subsection.1.1}}
\citation{papernot2016cleverhans}
\citation{lecun-mnisthandwrittendigit-2010}
\citation{cifar10}
\citation{Biggio2015}
\citation{Tygar2011}
\citation{vlfeat}
\citation{Szegedy2013}
\@writefile{lof}{\contentsline {figure}{\numberline {1}{\ignorespaces Example of MNIST dataset adversarial sample crafting with the original image on the left and adversarial sample on the right. Labels above the image show original class and targeted class with adversarial perturbation.\relax }}{2}{figure.caption.1}}
\providecommand*\caption@xref[2]{\@setref\relax\@undefined{#1}}
\newlabel{fig:adversary_samples}{{1}{2}{Example of MNIST dataset adversarial sample crafting with the original image on the left and adversarial sample on the right. Labels above the image show original class and targeted class with adversarial perturbation.\relax }{figure.caption.1}{}}
\@writefile{toc}{\contentsline {subsection}{\numberline {ii}Related Work}{2}{subsection.1.2}}
\@writefile{toc}{\contentsline {section}{\numberline {II}Design}{2}{section.2}}
\@writefile{toc}{\contentsline {subsection}{\numberline {i}Overview}{2}{subsection.2.1}}
\@writefile{lof}{\contentsline {figure}{\numberline {2}{\ignorespaces General outline of project\relax }}{3}{figure.caption.2}}
\newlabel{fig:outline}{{2}{3}{General outline of project\relax }{figure.caption.2}{}}
\@writefile{lof}{\contentsline {figure}{\numberline {3}{\ignorespaces Comparison of neural network's confusion matrix for label 3 with the MNIST test data (top) and adversarial crafted samples (bottom).\relax }}{3}{figure.caption.3}}
\newlabel{fig:cfm}{{3}{3}{Comparison of neural network's confusion matrix for label 3 with the MNIST test data (top) and adversarial crafted samples (bottom).\relax }{figure.caption.3}{}}
\@writefile{toc}{\contentsline {subsection}{\numberline {ii}Metrics}{4}{subsection.2.2}}
\newlabel{eq:accuracy}{{1}{4}{Metrics}{equation.2.1}{}}
\@writefile{lof}{\contentsline {figure}{\numberline {4}{\ignorespaces Confusion matrix for the fingerprinting defense\relax }}{4}{figure.caption.4}}
\newlabel{fig:cfm_defense}{{4}{4}{Confusion matrix for the fingerprinting defense\relax }{figure.caption.4}{}}
\@writefile{toc}{\contentsline {section}{\numberline {III}Results}{5}{section.3}}
\@writefile{lof}{\contentsline {figure}{\numberline {5}{\ignorespaces Comparison of neural network accuracy with 10,000 normal test samples and 10,000 adversarial samples.\relax }}{5}{figure.caption.5}}
\newlabel{fig:neural_net_comparison}{{5}{5}{Comparison of neural network accuracy with 10,000 normal test samples and 10,000 adversarial samples.\relax }{figure.caption.5}{}}
\@writefile{lof}{\contentsline {figure}{\numberline {6}{\ignorespaces Variable fingerprints in MATLAB with labels in ascending order (from top to bottom); third dimension represents the number of descriptors.\relax }}{5}{figure.caption.6}}
\newlabel{fig:fingerprint_dim}{{6}{5}{Variable fingerprints in MATLAB with labels in ascending order (from top to bottom); third dimension represents the number of descriptors.\relax }{figure.caption.6}{}}
\citation{LeBlanc2010}
\@writefile{lot}{\contentsline {table}{\numberline {1}{\ignorespaces Table of timing results\relax }}{6}{table.caption.7}}
\newlabel{tab:time_results}{{1}{6}{Table of timing results\relax }{table.caption.7}{}}
\@writefile{toc}{\contentsline {section}{\numberline {IV}Conclusion}{6}{section.4}}
\@writefile{toc}{\contentsline {subsection}{\numberline {i}Future Work}{6}{subsection.4.1}}
\citation{Radford2016}
\citation{Goodfellow2015}
\citation{Wang2016}
\citation{PerdisciRobertoandLeeWenkeandFeamster2010}
\bibstyle{plain}
\bibdata{report}
\bibcite{Biggio2015}{1}
\bibcite{Corona2013}{2}
\bibcite{Goodfellow2015}{3}
\bibcite{LeBlanc2010}{4}
\bibcite{cifar10}{5}
\bibcite{lecun-mnisthandwrittendigit-2010}{6}
\bibcite{Nelson2008}{7}
\bibcite{papernot2016cleverhans}{8}
\bibcite{PerdisciRobertoandLeeWenkeandFeamster2010}{9}
\bibcite{Radford2016}{10}
\bibcite{Szegedy2013}{11}
\bibcite{Tygar2011}{12}
\bibcite{vlfeat}{13}
\bibcite{Wang2016}{14}
